<?xml version="1.0" encoding="UTF-8"?>
<svg width="228px" height="106px" viewBox="0 0 228 106" version="1.1" xmlns="http://www.w3.org/2000/svg" xmlns:xlink="http://www.w3.org/1999/xlink">
    <title>DDAA635F-73EF-4B01-A349-14774C9D641F</title>
    <defs>
        <linearGradient x1="50%" y1="100%" x2="50%" y2="5.15011802%" id="linearGradient-1">
            <stop stop-color="#B1FFD5" offset="0%"></stop>
            <stop stop-color="#A6D5FF" offset="100%"></stop>
        </linearGradient>
        <linearGradient x1="0%" y1="62.1512651%" x2="100%" y2="62.1512651%" id="linearGradient-2">
            <stop stop-color="#B1FFD5" offset="0%"></stop>
            <stop stop-color="#A6D5FF" offset="100%"></stop>
        </linearGradient>
        <linearGradient x1="-12.1780974%" y1="62.1512651%" x2="100%" y2="62.1512651%" id="linearGradient-3">
            <stop stop-color="#A6D5FF" offset="0%"></stop>
            <stop stop-color="#B1FFD5" offset="100%"></stop>
        </linearGradient>
        <linearGradient x1="100%" y1="62.1512651%" x2="0%" y2="62.1512651%" id="linearGradient-4">
            <stop stop-color="#B1FFD5" offset="0%"></stop>
            <stop stop-color="#A6D5FF" offset="100%"></stop>
        </linearGradient>
        <linearGradient x1="50%" y1="0%" x2="50%" y2="100%" id="linearGradient-5">
            <stop stop-color="#2795BC" offset="0%"></stop>
            <stop stop-color="#115C87" offset="100%"></stop>
        </linearGradient>
    </defs>
    <g id="Page-1" stroke="none" stroke-width="1" fill="none" fill-rule="evenodd">
        <g id="HD-Job-directory-promoting-learning" transform="translate(-151.000000, -402.000000)">
            <g id="courses-job-directory" transform="translate(151.000000, 402.000000)">
                <g id="bg-shapes" opacity="0.333263579">
                    <path d="M167.821639,25.679503 C131.295339,21.8552082 97.9058759,35.4147417 52.9457331,35.5513237 C7.98559031,35.6879056 7.50234191,50.3144709 20.0277213,64.6956063 C32.5531008,79.0767418 73.6212176,84 109.775815,84 C145.930412,84 160.061463,71.1679533 208.49293,72.2015349 C256.924398,73.2351165 204.347939,29.5037979 167.821639,25.679503 Z" id="Path-3" fill="url(#linearGradient-1)" opacity="0.5" transform="translate(120.500000, 54.500000) scale(-1, 1) translate(-120.500000, -54.500000) "></path>
                    <path d="M154.254292,1.09411508 C130.129945,-5.06364787 108.077369,16.7694994 78.3827633,16.9894195 C48.6881573,17.2093396 48.3689886,40.7605887 56.6415648,63.9166543 C64.914141,87.0727198 92.0381995,95 115.91705,95 C139.7959,95 149.128966,74.33823 181.116261,76.0024714 C213.103556,77.6667129 178.378639,7.25187802 154.254292,1.09411508 Z" id="Path-3" fill="url(#linearGradient-2)" opacity="0.5" transform="translate(123.000000, 47.500000) scale(1, -1) translate(-123.000000, -47.500000) "></path>
                    <path d="M113.775902,1.17473408 C86.9333192,-5.43675876 62.395946,18.0051467 29.355469,18.2412715 C-3.68500805,18.4773962 -4.04013943,43.7640005 5.16455801,68.6263025 C14.3692554,93.4886045 44.549546,102 71.1189709,102 C97.6883959,102 108.073075,79.8157837 143.664572,81.6026536 C179.256069,83.3895234 140.618485,7.78622693 113.775902,1.17473408 Z" id="Path-3-Copy" fill="url(#linearGradient-3)" opacity="0.5" transform="translate(79.000000, 51.000000) scale(-1, -1) translate(-79.000000, -51.000000) "></path>
                    <path d="M185.735198,12.0941151 C160.081843,5.93635213 136.631569,27.7694994 105.05491,27.9894195 C73.4782518,28.2093396 73.1388541,51.7605887 81.9357485,74.9166543 C90.7326429,98.0727198 119.575832,106 144.96813,106 C170.360429,106 180.285028,85.33823 214.299686,87.0024714 C248.314344,88.6667129 211.388552,18.251878 185.735198,12.0941151 Z" id="Path-3" fill="url(#linearGradient-4)" opacity="0.5"></path>
                </g>
                <g id="hospitality-people" transform="translate(12.000000, 20.000000)">
                    <g id="Group-35" transform="translate(140.313600, 15.206400)">
                        <path d="M49.5063014,24.7531853 C49.5063014,38.4237389 38.4242918,49.5064397 24.753047,49.5064397 C11.0824934,49.5064397 -0.00020736,38.4237389 -0.00020736,24.7531853 C-0.00020736,11.0826317 11.0824934,-6.912e-05 24.753047,-6.912e-05 C38.4242918,-6.912e-05 49.5063014,11.0826317 49.5063014,24.7531853" id="Fill-1" fill="#1A2D3A"></path>
                        <path d="M32.8378752,32.6696371 C33.0210432,32.3261107 24.6388608,48.2237107 24.6388608,48.2237107 C24.6388608,48.2237107 16.4322432,32.3261107 16.5338496,32.6371507" id="Fill-4" fill="#FFFFFF"></path>
                        <path d="M33.0166886,32.6986675 C37.1811686,34.1778355 40.8327782,36.7421875 43.634903,40.0488883 C39.0944102,45.4056883 32.3261798,48.8153779 24.7533926,48.8153779 C17.1806054,48.8153779 10.412375,45.4056883 5.87188224,40.0488883 C8.69197824,36.7214515 12.3712358,34.1453491 16.5688934,32.6703283 L24.744407,47.0431411 L33.0166886,32.6986675 Z" id="Fill-6" fill="#000000"></path>
                        <path d="M33.0166886,32.6986675 C37.1811686,34.1778355 40.8327782,36.7421875 43.634903,40.0488883 C39.0944102,45.4056883 32.3261798,48.8153779 24.7533926,48.8153779 C17.1806054,48.8153779 10.412375,45.4056883 5.87188224,40.0488883 C8.69197824,36.7214515 12.3712358,34.1453491 16.5688934,32.6703283 L24.744407,47.0431411 L33.0166886,32.6986675 Z" id="Stroke-8" stroke="#000000" stroke-width="0.6912" stroke-linecap="round" stroke-linejoin="round"></path>
                        <path d="M33.0045926,18.9050112 C33.0045926,23.4620928 29.3101286,27.1565568 24.753047,27.1565568 C20.1966566,27.1565568 16.5021926,23.4620928 16.5021926,18.9050112 C16.5021926,14.3479296 20.1966566,10.6541568 24.753047,10.6541568 C29.3101286,10.6541568 33.0045926,14.3479296 33.0045926,18.9050112" id="Fill-10" fill="#FFEADC"></path>
                        <polygon id="Fill-12" fill="#000000" points="24.7527014 32.3861069 20.1465446 35.0873165 20.1465446 29.6848973"></polygon>
                        <polygon id="Stroke-14" stroke="#000000" stroke-width="0.5" stroke-linecap="round" stroke-linejoin="round" points="24.7527014 32.3861069 20.1465446 35.0873165 20.1465446 29.6848973"></polygon>
                        <polygon id="Fill-16" fill="#000000" points="24.8229274 32.3861069 29.4290842 29.6848973 29.4290842 35.0873165"></polygon>
                        <polygon id="Stroke-18" stroke="#000000" stroke-width="0.5" stroke-linecap="round" stroke-linejoin="round" points="24.8229274 32.3861069 29.4290842 29.6848973 29.4290842 35.0873165"></polygon>
                        <path d="M43.7343667,40.2748416 C43.7343667,40.2748416 45.1167667,41.6572416 46.4991667,40.2748416 C47.5919539,39.1820544 47.8228147,35.4074112 47.8228147,35.4074112 L52.5616819,35.4074112 C52.5616819,35.4074112 50.6463667,45.1132416 47.1903667,46.4956416 C43.7343667,47.8780416 38.9243059,44.3591424 38.9243059,44.3591424 L43.7343667,40.2748416 Z" id="Fill-20" fill="#000000"></path>
                        <path d="M43.7343667,40.2748416 C43.7343667,40.2748416 45.1167667,41.6572416 46.4991667,40.2748416 C47.5919539,39.1820544 47.8228147,35.4074112 47.8228147,35.4074112 L52.5616819,35.4074112 C52.5616819,35.4074112 50.6463667,45.1132416 47.1903667,46.4956416 C43.7343667,47.8780416 38.9243059,44.3591424 38.9243059,44.3591424 L43.7343667,40.2748416 Z" id="Stroke-22" stroke="#000000" stroke-width="0.6912" stroke-linecap="round" stroke-linejoin="round"></path>
                        <line x1="35.8199885" y1="35.4074112" x2="62.5908557" y2="35.4074112" id="Stroke-24" stroke="#F9D387" stroke-width="0.6912"></line>
                        <path d="M46.6253798,35.7820416 C47.4022886,37.4153472 49.062551,38.5468416 50.9916902,38.5468416 C52.9208294,38.5468416 54.581783,37.4153472 55.3586918,35.7820416 L46.6253798,35.7820416 Z" id="Fill-26" fill="#FFEADC"></path>
                        <polygon id="Fill-28" fill="#73D8F4" points="42.6974976 35.0909107 47.5358976 35.0909107 47.5358976 28.1789107 42.6974976 28.1789107"></polygon>
                        <polygon id="Fill-30" fill="#F4D87F" points="42.6974976 35.0909107 47.5358976 35.0909107 47.5358976 31.0591411 42.6974976 31.0591411"></polygon>
                        <path d="M53.2383667,28.8700416 C54.7652275,28.8700416 56.0031667,26.7038208 56.0031667,24.0316416 L50.4735667,24.0316416 C50.4735667,26.7038208 51.7115059,28.8700416 53.2383667,28.8700416" id="Fill-31" fill="#CDF1F9"></path>
                        <path d="M53.2383667,28.3860634 C54.4790707,28.3860634 55.4847667,26.978089 55.4847667,25.2411034 L50.9919667,25.2411034 C50.9919667,26.978089 51.9976627,28.3860634 53.2383667,28.3860634" id="Fill-32" fill="#99173D"></path>
                        <line x1="53.2383667" y1="28.8700416" x2="53.2383667" y2="34.3996416" id="Stroke-33" stroke="#CDF1F9" stroke-width="0.6912" stroke-linecap="round"></line>
                        <line x1="51.1647667" y1="34.7452416" x2="55.3119667" y2="34.7452416" id="Stroke-34" stroke="#CDF1F9" stroke-width="0.6912" stroke-linecap="round" stroke-linejoin="round"></line>
                    </g>
                    <g id="Group-18">
                        <rect id="Rectangle" x="0" y="0" width="62.8992" height="64.9728"></rect>
                        <g id="Group-3" transform="translate(13.132800, 15.035466)" fill="#1A2D3A">
                            <path d="M49.5065779,25.0130074 C49.5065779,38.683561 38.4245683,49.7662618 24.7533235,49.7662618 C11.0820787,49.7662618 6.91199998e-05,38.683561 6.91199998e-05,25.0130074 C6.91199998e-05,11.3424538 11.0820787,0.25975296 24.7533235,0.25975296 C38.4245683,0.25975296 49.5065779,11.3424538 49.5065779,25.0130074" id="Fill-2"></path>
                        </g>
                        <path d="M37.8796954,47.2619059 C30.3075994,47.2619059 23.5386778,50.6715955 18.998185,56.0290867 C23.5386778,61.3865779 30.3075994,64.7955763 37.8796954,64.7955763 C45.4524826,64.7955763 52.2214042,61.3865779 56.7612058,56.0290867 C52.2214042,50.6715955 45.4524826,47.2619059 37.8796954,47.2619059" id="Fill-4" stroke="#E4E4E4" stroke-width="0.6912" fill="#FFFFFF"></path>
                        <path d="M44.2307866,29.6177126 C45.417577,31.0471142 46.1308954,32.8829414 46.1308954,34.8853478 C46.1308954,39.4424294 42.4364314,43.1368934 37.880041,43.1368934 C33.3229594,43.1368934 29.6284954,39.4424294 29.6284954,34.8853478 C29.6284954,32.891927 30.335593,31.0630118 31.5133978,29.6370662 L44.2307866,29.6177126 Z" id="Fill-6" fill="#FFEADC"></path>
                        <path d="M44.0802432,5.42439936 C44.0498304,5.42439936 44.0208,5.43338496 43.9903872,5.43338496 C43.5521664,2.36653056 40.9408128,-0.00013824 37.7523072,-0.00013824 C34.5326976,-0.00013824 31.904064,2.41353216 31.5045504,5.52393216 C31.18176,5.47278336 30.856896,5.42439936 30.5195904,5.42439936 C27.024192,5.42439936 24.1909632,8.25831936 24.1909632,11.7530266 C24.1909632,15.248425 27.024192,18.0816538 30.5195904,18.0816538 C30.8285568,18.0816538 31.1257728,18.0332698 31.4229888,17.9904154 L31.4229888,28.930729 L44.0802432,28.930729 L44.0802432,18.0816538 C47.5756416,18.0816538 50.4088704,15.248425 50.4088704,11.7530266 C50.4088704,8.25831936 47.5756416,5.42439936 44.0802432,5.42439936" id="Fill-8" stroke="#E4E4E4" stroke-width="0.6912" fill="#FFFFFF"></path>
                        <path d="M44.5047782,29.6501299 L31.267607,29.6501299 C30.7236326,29.6501299 30.2833382,29.2091443 30.2833382,28.6658611 L30.2833382,25.7959987 C30.2833382,25.2527155 30.7236326,24.8117299 31.267607,24.8117299 L44.5047782,24.8117299 C45.0487526,24.8117299 45.4897382,25.2527155 45.4897382,25.7959987 L45.4897382,28.6658611 C45.4897382,29.2091443 45.0487526,29.6501299 44.5047782,29.6501299" id="Fill-10" stroke="#E4E4E4" stroke-width="0.6912" fill="#FFFFFF"></path>
                        <path d="M40.0410086,50.7317299 C40.0410086,51.6862771 39.2675558,52.4597299 38.3130086,52.4597299 C37.3584614,52.4597299 36.5850086,51.6862771 36.5850086,50.7317299 C36.5850086,49.7771827 37.3584614,49.0037299 38.3130086,49.0037299 C39.2675558,49.0037299 40.0410086,49.7771827 40.0410086,50.7317299" id="Fill-12" fill="#CCCCCC"></path>
                        <path d="M40.0410086,56.2613299 C40.0410086,57.2158771 39.2675558,57.9893299 38.3130086,57.9893299 C37.3584614,57.9893299 36.5850086,57.2158771 36.5850086,56.2613299 C36.5850086,55.3067827 37.3584614,54.5333299 38.3130086,54.5333299 C39.2675558,54.5333299 40.0410086,55.3067827 40.0410086,56.2613299" id="Fill-14" fill="#CCCCCC"></path>
                        <path d="M40.0410086,61.7909299 C40.0410086,62.7454771 39.2675558,63.5189299 38.3130086,63.5189299 C37.3584614,63.5189299 36.5850086,62.7454771 36.5850086,61.7909299 C36.5850086,60.8363827 37.3584614,60.0629299 38.3130086,60.0629299 C39.2675558,60.0629299 40.0410086,60.8363827 40.0410086,61.7909299" id="Fill-16" fill="#CCCCCC"></path>
                    </g>
                    <g id="Group-26" transform="translate(76.723200, 15.206400)">
                        <path d="M49.5063014,24.7531853 C49.5063014,38.4237389 38.4242918,49.5071309 24.753047,49.5071309 C11.0824934,49.5071309 -0.00020736,38.4237389 -0.00020736,24.7531853 C-0.00020736,11.0826317 11.0824934,-6.912e-05 24.753047,-6.912e-05 C38.4242918,-6.912e-05 49.5063014,11.0826317 49.5063014,24.7531853" id="Fill-1" fill="url(#linearGradient-5)"></path>
                        <path d="M32.8378752,33.3608371 C33.0210432,33.0173107 24.6388608,48.9149107 24.6388608,48.9149107 C24.6388608,48.9149107 16.4322432,33.0173107 16.5338496,33.3283507" id="Fill-4" fill="#EDEDED"></path>
                        <path d="M33.0045926,20.9786112 C33.0045926,25.5356928 29.3101286,29.2301568 24.753047,29.2301568 C20.1966566,29.2301568 16.5021926,25.5356928 16.5021926,20.9786112 C16.5021926,16.4215296 20.1966566,12.7277568 24.753047,12.7277568 C29.3101286,12.7277568 33.0045926,16.4215296 33.0045926,20.9786112" id="Fill-6" fill="#FFEADC"></path>
                        <path d="M25.2643277,38.0209766 L26.8001741,43.7309798 L24.7265741,47.8781798 L22.6529741,43.7309798 L24.1107149,38.0299622 C24.2966477,37.4811494 25.0707917,37.4749286 25.2643277,38.0209766" id="Fill-8" fill="#6D0312"></path>
                        <path d="M25.2643277,38.0209766 L26.8001741,43.7309798 L24.7265741,47.8781798 L22.6529741,43.7309798 L24.1107149,38.0299622 C24.2966477,37.4811494 25.0707917,37.4749286 25.2643277,38.0209766 Z" id="Stroke-10" stroke="#6D0312" stroke-width="0.5" stroke-linecap="round" stroke-linejoin="round"></path>
                        <polygon id="Fill-12" fill="#6D0312" points="24.7263667 37.2778675 22.0251571 32.6717107 27.4275763 32.6717107"></polygon>
                        <polygon id="Stroke-14" stroke="#6D0312" stroke-width="0.5" stroke-linecap="round" stroke-linejoin="round" points="24.7263667 37.2778675 22.0251571 32.6717107 27.4275763 32.6717107"></polygon>
                        <path d="M33.0166886,32.6986675 C37.1811686,34.1778355 40.8327782,36.7421875 43.634903,40.0488883 C39.0944102,45.4063795 32.3261798,48.8153779 24.7533926,48.8153779 C17.1806054,48.8153779 10.412375,45.4063795 5.87188224,40.0488883 C8.69197824,36.7214515 12.3712358,34.1453491 16.5688934,32.6703283 L24.744407,47.0431411 L33.0166886,32.6986675 Z" id="Fill-16" fill="#000000"></path>
                        <path d="M33.0166886,32.6986675 C37.1811686,34.1778355 40.8327782,36.7421875 43.634903,40.0488883 C39.0944102,45.4063795 32.3261798,48.8153779 24.7533926,48.8153779 C17.1806054,48.8153779 10.412375,45.4063795 5.87188224,40.0488883 C8.69197824,36.7214515 12.3712358,34.1453491 16.5688934,32.6703283 L24.744407,47.0431411 L33.0166886,32.6986675 Z" id="Stroke-18" stroke="#000000" stroke-width="0.6912" stroke-linecap="round" stroke-linejoin="round"></path>
                        <path d="M16.1200973,15.0325632 L12.6081101,12.4924032 C11.8975565,11.9788416 11.9300429,10.9102464 12.6696269,10.4395392 L24.0875597,3.184704 C24.4939853,2.9268864 25.0123853,2.9268864 25.4188109,3.184704 L36.8401997,10.4416128 C37.5797837,10.9116288 37.6129613,11.9788416 36.9037901,12.4930944 L33.3323597,15.0864768" id="Fill-20" fill="#000000"></path>
                        <path d="M33.2313754,17.4652416 C27.7854106,15.2091648 21.6675994,15.2091648 16.2216346,17.4652416 C16.0861594,17.4652416 16.0861594,11.9356416 16.2216346,11.7179136 C22.3719322,9.1701504 27.0810778,9.1701504 33.2313754,11.7179136 C33.3661594,11.9356416 33.3661594,17.4652416 33.2313754,17.4652416" id="Fill-22" fill="#000000"></path>
                        <path d="M33.2313754,17.4652416 C27.7854106,15.2091648 21.6675994,15.2091648 16.2216346,17.4652416 C16.0861594,17.4652416 16.0861594,11.9356416 16.2216346,11.7179136 C22.3719322,9.1701504 27.0810778,9.1701504 33.2313754,11.7179136 C33.3661594,11.9356416 33.3661594,17.4652416 33.2313754,17.4652416 Z" id="Stroke-24" stroke="#115C87" stroke-width="0.6912"></path>
                    </g>
                </g>
            </g>
        </g>
    </g>
</svg>