<svg xmlns="http://www.w3.org/2000/svg" viewBox="0 0 41 40">
  <title>ic-handshake</title>
  <g>
    <g>
      <path d="M7.43,25.49h0C.5,25,.31,24.83.15,24.67A.5.5,0,0,1,0,24.13L5,12.07a.49.49,0,0,1,.55-.3A36.47,36.47,0,0,1,13.24,14a.5.5,0,0,1,.22.68L7.87,25.23A.5.5,0,0,1,7.43,25.49ZM1.19,24c1.05.14,3.57.35,6,.51l5.19-9.75a36.91,36.91,0,0,0-6.6-1.9Zm-.69.36h0Z"/>
      <path d="M10.33,26.16a.5.5,0,0,1-.31-.11L7.79,24.26a.5.5,0,0,1-.13-.62l4.92-9.39a.5.5,0,0,1,.33-.26s3.94-.89,5.62-2.15c1.09-.81,3.3-.3,5,.45,2.53,1.11,5.34,3.31,5.62,6.16.22,2.23-.74,2.85-1.33,3-1.58.46-3.87-1.22-4.86-3a6.4,6.4,0,0,1-2-.66l-10.36,8.2A.5.5,0,0,1,10.33,26.16Zm-1.6-2.42L10.33,25l10.41-8.24a.5.5,0,0,1,.78.22,7.32,7.32,0,0,0,1.86.58.5.5,0,0,1,.35.27c.79,1.58,2.79,3,3.81,2.68.68-.2.68-1.31.61-2-.24-2.42-2.86-4.39-5-5.35-2-.86-3.5-.94-4-.56a19.05,19.05,0,0,1-5.77,2.27Z"/>
      <path d="M22.09,33a4.78,4.78,0,0,1-2.17-.48,1.54,1.54,0,0,1-.79-.77,4.44,4.44,0,0,1-3.1-.42A1.94,1.94,0,0,1,15,30a3.89,3.89,0,0,1-1-.09,3,3,0,0,1-1.6-.9,2.32,2.32,0,0,1-3.09-.4A2.35,2.35,0,0,1,10,25.27l10.73-8.49a.5.5,0,0,1,.78.22,7.32,7.32,0,0,0,1.86.58.5.5,0,0,1,.35.27c.79,1.58,2.79,3,3.81,2.68.68-.2.68-1.31.61-2h0c-.17-1.69-1.55-3.4-3.78-4.71a.5.5,0,0,1,0-.87c2.88-1.87,8.68.5,8.92.6a.5.5,0,0,1,.31.46c0,.63.8,6.72,1.34,10.66a.5.5,0,0,1-.27.51A48.37,48.37,0,0,0,26.3,31.4,6.36,6.36,0,0,1,22.09,33Zm-1.93-1.5a2.49,2.49,0,0,0,1,.41,5.24,5.24,0,0,0,4.45-1.31,52.48,52.48,0,0,1,8.28-6.15c-.24-1.76-1.13-8.36-1.28-10.1-1-.39-4.71-1.65-7-.91,2.05,1.41,3.31,3.19,3.49,5,.22,2.23-.74,2.85-1.33,3-1.58.46-3.87-1.22-4.86-3a6.39,6.39,0,0,1-2-.66l-10.36,8.2c-.87.7-.88,1.48-.5,2s1.21.67,2.11-.05c2.21-1.77,5.79-4.45,5.82-4.48a.5.5,0,0,1,.6.8l-5.41,4.16a2.09,2.09,0,0,0,1,.52,3.42,3.42,0,0,0,1.22,0,1.41,1.41,0,0,1,.52-.21,12.35,12.35,0,0,0,4.23-2.21l.48-.37a.5.5,0,0,1,.63.77s-.27.22-.65.5A12.82,12.82,0,0,1,16,29.88c0,.14.13.41.51.64a4.06,4.06,0,0,0,3.3.07l.11,0a13.94,13.94,0,0,0,3.93-2.17.5.5,0,0,1,.61.79,14,14,0,0,1-4.21,2.33h0Z"/>
      <path d="M40.5,27.73h0l-5.59-.22a.5.5,0,0,1-.47-.39c-.89-4-1.76-12.65-1.8-13a.5.5,0,0,1,.3-.51,15.25,15.25,0,0,1,6.27-1.16.5.5,0,0,1,.46.45L41,27.18a.5.5,0,0,1-.5.55Zm-5.18-1.21,4.63.19L38.7,13.4a14.66,14.66,0,0,0-5,1C33.84,16,34.57,22.91,35.32,26.52Z"/>
    </g>
    <path d="M17.42,0l.84,6.07-.57.09-1.08-6ZM24,.17l.81.17-1.41,6-.56-.12ZM10.4,2.34l3,5.36L12.89,8,9.69,2.75Zm20.49.54.69.45L28.1,8.39l-.48-.32ZM4.71,7,9.42,11l-.36.44L4.19,7.69Zm31.62.83q.25.33.49.68L31.74,12l-.33-.46ZM10.3,29.8l.41.39L6.55,34.71,6,34.13Zm19.26.47,4.12,4.54-.62.54-3.94-4.7Zm-15,2.42.53.22-2.25,5.71-.76-.32Zm10.64.26,2.19,5.73L26.6,39l-2-5.81Zm-5.64.91h.58l0,6.13-.83,0Z"/>
  </g>
</svg>
