<svg xmlns="http://www.w3.org/2000/svg" viewBox="0 0 29 30">
  <title>ic-premiumlight</title>
  <g>
    <g>
      <path d="M16.51,26.94h-4a.48.48,0,0,1-.48-.48V19.12a.48.48,0,0,1,.58-.47,9.32,9.32,0,0,0,3.83,0,.48.48,0,0,1,.58.47v7.34A.48.48,0,0,1,16.51,26.94ZM13,26H16V19.7a10.19,10.19,0,0,1-3.06,0Z"/>
      <g>
        <path d="M14.5,19.81a8.28,8.28,0,0,1-8.18-7.3A2,2,0,0,1,6.26,12L5.48,2.37A2.33,2.33,0,0,1,7.79,0H21.21a2.32,2.32,0,0,1,2.31,2.33L22.74,12a2.2,2.2,0,0,1-.08.55A8.26,8.26,0,0,1,14.5,19.81ZM7.79,1A1.36,1.36,0,0,0,6.45,2.33l.77,9.61a1.5,1.5,0,0,0,.05.38,7.26,7.26,0,0,0,14.44.06,1.74,1.74,0,0,0,.06-.41l.78-9.69A1.35,1.35,0,0,0,21.21,1Z"/>
        <path d="M22.38,13.14a.48.48,0,0,1,0-1,5.12,5.12,0,0,0,5.05-4.52,1.24,1.24,0,0,0,0-.28.47.47,0,0,1,0-.11L28,4.9a.84.84,0,0,0-.83-.8H23a.48.48,0,0,1,0-1H27.2A1.81,1.81,0,0,1,29,5a.47.47,0,0,1,0,.11l-.55,2.37a1.81,1.81,0,0,1-.06.4A6.06,6.06,0,0,1,22.38,13.14Z"/>
        <path d="M6.62,13.14a6.09,6.09,0,0,1-6-5.37,1.35,1.35,0,0,1-.05-.33L0,5.06A.47.47,0,0,1,0,5,1.81,1.81,0,0,1,1.8,3.14H6a.48.48,0,0,1,0,1H1.8A.84.84,0,0,0,1,4.9l.54,2.36a.47.47,0,0,1,0,.11.84.84,0,0,0,0,.21,5.14,5.14,0,0,0,5.06,4.58.48.48,0,0,1,0,1Z"/>
      </g>
      <path d="M23.81,30H5.69a.48.48,0,0,1-.46-.64l1-3.06A.48.48,0,0,1,6.7,26H22.81a.48.48,0,0,1,.46.33l1,3.06a.48.48,0,0,1-.46.64ZM6.36,29H23.15l-.69-2.09H7Z"/>
    </g>
    <path d="M17.18,13.28a.48.48,0,0,1-.23-.06l-2.45-1.3-2.45,1.3a.48.48,0,0,1-.7-.51L11.82,10l-2-2a.48.48,0,0,1,.27-.82l2.74-.4,1.23-2.51a.5.5,0,0,1,.87,0l1.23,2.51,2.74.4a.48.48,0,0,1,.27.82l-2,2,.47,2.77a.48.48,0,0,1-.48.56ZM14.5,10.89a.48.48,0,0,1,.23.06l1.81,1-.35-2a.48.48,0,0,1,.14-.43L17.8,8l-2-.3a.48.48,0,0,1-.36-.27l-.9-1.85-.9,1.85a.48.48,0,0,1-.36.27l-2,.3,1.47,1.45a.48.48,0,0,1,.14.43l-.35,2,1.81-1A.48.48,0,0,1,14.5,10.89Z"/>
  </g>
</svg>
